{
    "mail": {
        "to": "to@toto.tld",
        "from": "from@toto.tld",
        "identifier": "usename",
        "password": "password",
        "smtp": "smtp.gmail.com"
    },
    "website": {
        "home": "https://www.millepages.fr",
        "link_are_relative": true,
        "search_address": "/jeunesse-BD/livres?s=",
        "separator": "+",
        "retry": 2
    }
}
